[
    {
        "category": "Half-Cents and Cents",
        "position": "1"
    },
    {
        "subcategory": "Liberty Cap Half Cent (1793 - 1797)",
        "position": "1"
    },
    {
        "subcategory": "Draped Bust Half Cent (1800 - 1808)",
        "position": "2"
    },
    {
        "subcategory": "Classic Head Half Cent (1809 - 1836)",
        "position": "3"
    },
    {
        "subcategory": "Braided Hair Half Cent (1840 - 1857)",
        "position": "4"
    },
    {
        "subcategory": "Flowing Hair Large Cent (1793 - 1796)",
        "position": "5"
    },
    {
        "subcategory": "Draped Bust Cent (1796 - 1807)",
        "position": "6"
    },
    {
        "subcategory": "Classic Head Cent (1808 - 1814)",
        "position": "7"
    },
    {
        "subcategory": "Coronet Head Cent (1816 - 1839)",
        "position": "8"
    },
    {
        "subcategory": "Braided Hair Cent (1839 - 1857)",
        "position": "9"
    },
    {
        "subcategory": "Flying Eagle Cent (1856 - 1858)",
        "position": "10"
    },
    {
        "subcategory": "Indian Cent (1859 - 1909)",
        "position": "11"
    },
    {
        "subcategory": "Lincoln Cent (Wheat Reverse) (1909 - 1958)",
        "position": "12"
    },
    {
        "subcategory": "Lincoln Cent (Modern) (1959 to Date)",
        "position": "13"
    },
    {
        "category": "Two and Three Cents",
        "position": "2"
    },
    {
        "subcategory": "Two Cent (1864 - 1873)",
        "position": "1"
    },
    {
        "subcategory": "Three Cent Silver (1851 - 1873)",
        "position": "2"
    },
    {
        "subcategory": "Three Cent Nickel (1865 - 1889)",
        "position": "3"
    },
    {
        "category": "Nickels",
        "position": "3"
    },
    {
        "subcategory": "Shield Nickel (1866 - 1883)",
        "position": "1"
    },
    {
        "subcategory": "Liberty Nickel (1883 - 1913)",
        "position": "2"
    },
    {
        "subcategory": "Buffalo Nickel (1913 - 1938)",
        "position": "3"
    },
    {
        "subcategory": "Jefferson Nickel (1938 to Date)",
        "position": "4"
    },
    {
        "category": "Half-Dimes and Dimes",
        "position": "4"
    },
    {
        "subcategory": "Bust Half Dime (1792)",
        "position": "1"
    },
    {
        "subcategory": "Flowing Hair Half Dime (1794 - 1795)",
        "position": "2"
    },
    {
        "subcategory": "Draped Bust Half Dime (1796 - 1805)",
        "position": "3"
    },
    {
        "subcategory": "Capped Bust Half Dime (1829 - 1837)",
        "position": "4"
    },
    {
        "subcategory": "Liberty Seated Half Dime (1837 - 1873)",
        "position": "5"
    },
    {
        "subcategory": "Draped Bust Dime (1796 - 1807)",
        "position": "6"
    },
    {
        "subcategory": "Capped Bust Dime (1809 - 1837)",
        "position": "7"
    },
    {
        "subcategory": "Liberty Seated Dime (1837 - 1891)",
        "position": "8"
    },
    {
        "subcategory": "Barber Dime (1892 - 1916)",
        "position": "9"
    },
    {
        "subcategory": "Mercury Dime (1916 - 1945)",
        "position": "10"
    },
    {
        "subcategory": "Roosevelt Dime (1946 to Date)",
        "position": "11"
    },
    {
        "category": "Quarters",
        "position": "5"
    },
    {
        "subcategory": "Twenty Cent (1875 - 1878)",
        "position": "1"
    },
    {
        "subcategory": "Draped Bust Quarter (1796 - 1807)",
        "position": "2"
    },
    {
        "subcategory": "Capped Bust Quarter (1815 - 1838)",
        "position": "3"
    },
    {
        "subcategory": "Liberty Seated Quarter (1838 - 1891)",
        "position": "4"
    },
    {
        "subcategory": "Barber Quarter (1892 - 1916)",
        "position": "5"
    },
    {
        "subcategory": "Standing Liberty Quarter (1916 - 1930)",
        "position": "6"
    },
    {
        "subcategory": "Washington Quarter (1932 - 1998)",
        "position": "7"
    },
    {
        "subcategory": "Washington 50 States Quarters (1999 - 2008)",
        "position": "8"
    },
    {
        "subcategory": "Washington D.C. and U.S. Territories Quarters (2009)",
        "position": "9"
    },
    {
        "subcategory": "Washington America the Beautiful Quarters (2010 - 2021)",
        "position": "10"
    },
    {
        "category": "Half Dollars",
        "position": "6"
    },
    {
        "subcategory": "Flowing Hair Half Dollar (1794 - 1795)",
        "position": "1"
    },
    {
        "subcategory": "Draped Bust Half Dollar (1796 - 1807)",
        "position": "2"
    },
    {
        "subcategory": "Capped Bust Half Dollar (1807 - 1839)",
        "position": "3"
    },
    {
        "subcategory": "Liberty Seated Half Dollar (1839 - 1891)",
        "position": "4"
    },
    {
        "subcategory": "Barber Half Dollar (1892 - 1915)",
        "position": "5"
    },
    {
        "subcategory": "Walking Liberty Half Dollar (1916 - 1947)",
        "position": "6"
    },
    {
        "subcategory": "Franklin Half Dollar (1948 - 1963)",
        "position": "7"
    },
    {
        "subcategory": "Kennedy Half Dollar (1964 to Date)",
        "position": "8"
    },
    {
        "category": "Dollars",
        "position": "7"
    },
    {
        "subcategory": "Flowing Hair Dollar (1794 - 1795)",
        "position": "1"
    },
    {
        "subcategory": "Draped Bust Dollar (1795 - 1804)",
        "position": "2"
    },
    {
        "subcategory": "Liberty Seated Dollar (1836 - 1873)",
        "position": "3"
    },
    {
        "subcategory": "Trade Dollar (1873 - 1885)",
        "position": "4"
    },
    {
        "subcategory": "Morgan Dollar (1878 - 1921)",
        "position": "5"
    },
    {
        "subcategory": "Peace Dollar (1921 - 1935)",
        "position": "6"
    },
    {
        "subcategory": "Ike Dollar (1971 - 1978)",
        "position": "7"
    },
    {
        "subcategory": "Susan B. Anthony Dollar (1979 - 1999)",
        "position": "8"
    },
    {
        "subcategory": "Sacagawea Dollar (2000 to Date)",
        "position": "9"
    },
    {
        "subcategory": "Presidential Dollars (2007 to Date)",
        "position": "10"
    },
    {
        "category": "Gold Coins",
        "position": "8"
    },
    {
        "subcategory": "Gold Dollar (1849 - 1889)",
        "position": "1"
    },
    {
        "subcategory": "Draped Bust $2.5 (1796 - 1807)",
        "position": "2"
    },
    {
        "subcategory": "Capped Bust $2.5 (1808 - 1834)",
        "position": "3"
    },
    {
        "subcategory": "Classic Head $2.5 (1834 - 1839)",
        "position": "4"
    },
    {
        "subcategory": "Liberty Head $2.5 (1840 - 1907)",
        "position": "5"
    },
    {
        "subcategory": "Indian $2.5 (1908 - 1929)",
        "position": "6"
    },
    {
        "subcategory": "Three Dollar (1854 - 1889)",
        "position": "7"
    },
    {
        "subcategory": "$4 Stella (1879 - 1880)",
        "position": "8"
    },
    {
        "subcategory": "Draped Bust $5 (1795 - 1807)",
        "position": "9"
    },
    {
        "subcategory": "Capped Bust $5 (1807 - 1834)",
        "position": "10"
    },
    {
        "subcategory": "Classic Head $5 (1834 - 1838)",
        "position": "11"
    },
    {
        "subcategory": "Liberty Head $5 (1839 - 1908)",
        "position": "12"
    },
    {
        "subcategory": "Indian $5 (1908 - 1929)",
        "position": "13"
    },
    {
        "subcategory": "Draped Bust $10 (1795 - 1804)",
        "position": "14"
    },
    {
        "subcategory": "Liberty Head $10 (1838 - 1907)",
        "position": "15"
    },
    {
        "subcategory": "Indian $10 (1907 - 1933)",
        "position": "16"
    },
    {
        "subcategory": "Liberty Head $20 (1849 - 1907)",
        "position": "17"
    },
    {
        "subcategory": "St. Gaudens $20 (1907 - 1933)",
        "position": "18"
    },
    {
        "category": "Commemoratives",
        "position": "9"
    },
    {
        "subcategory": "Silver Commemorative (1892 - 1954)",
        "position": "1"
    },
    {
        "subcategory": "Gold Commemorative (1903 - 1926)",
        "position": "2"
    },
    {
        "subcategory": "Modern Silver and Clad Commemoratives (1982 to Date)",
        "position": "3"
    },
    {
        "subcategory": "American Innovation Dollar (2018 - 2032)",
        "position": "4"
    },
    {
        "subcategory": "Modern Gold Commemorative (1984 to Date)",
        "position": "5"
    },
    {
        "subcategory": "Norse Medal",
        "position": "6"
    },
    {
        "subcategory": "2016 Centennial Series (2016)",
        "position": "7"
    },
    {
        "subcategory": "2017 Centennial Series (2016)",
        "position": "8"
    },
    {
        "subcategory": "2018 Centennial Series (2016)",
        "position": "9"
    },
    {
        "subcategory": "2019 Centennial Series (2016)",
        "position": "10"
    },
    {
        "subcategory": "2020 Centennial Series (2016)",
        "position": "11"
    },
    {
        "subcategory": "2021 Centennial Series (2016)",
        "position": "12"
    },
    {
        "subcategory": "2022 Centennial Series (2016)",
        "position": "13"
    },
    {
        "subcategory": "2023 Centennial Series (2016)",
        "position": "14"
    },
    {
        "subcategory": "2024 Centennial Series (2016)",
        "position": "15"
    },
    {
        "subcategory": "2025 Centennial Series (2016)",
        "position": "16"
    },
    {
        "subcategory": "2026 Centennial Series (2016)",
        "position": "17"
    },
    {
        "subcategory": "2027 Centennial Series (2016)",
        "position": "18"
    },
    {
        "subcategory": "2028 Centennial Series (2016)",
        "position": "19"
    },
    {
        "subcategory": "2029 Centennial Series (2016)",
        "position": "20"
    },
    {
        "subcategory": "2030 Centennial Series (2016)",
        "position": "21"
    },
    {
        "subcategory": "2031 Centennial Series (2016)",
        "position": "22"
    },
    {
        "subcategory": "2032 Centennial Series (2016)",
        "position": "23"
    },
    {
        "subcategory": "2033 Centennial Series (2016)",
        "position": "24"
    },
    {
        "category": "Bullion Coins",
        "position": "10"
    },
    {
        "subcategory": "Silver Eagles (1986 to Date)",
        "position": "1"
    },
    {
        "subcategory": "5 oz. America the Beautiful Silver Quarters (2010 to Date)",
        "position": "2"
    },
    {
        "subcategory": "Gold Eagles (1986 to Date)",
        "position": "3"
    },
    {
        "subcategory": "Platinum Eagles (1997 to Date)",
        "position": "4"
    },
    {
        "subcategory": "Gold Buffalos (2006 to Date)",
        "position": "5"
    },
    {
        "subcategory": "First Spouses (2007 to Date)",
        "position": "6"
    },
    {
        "subcategory": "Ultra High Relief Double Eagles (2009)",
        "position": "7"
    },
    {
        "subcategory": "High Relief $100 Gold (2015)",
        "position": "8"
    },
    {
        "subcategory": "Palladium $25 Eagle (2017 to Date)",
        "position": "9"
    },
    {
        "subcategory": "American Liberty Gold (2017 to Date)",
        "position": "10"
    },
    {
        "category": "Colonials",
        "position": "11"
    },
    {
        "subcategory": "Counterstamped Coins",
        "position": "1"
    },
    {
        "subcategory": "Massachusetts Silver Coins (1652 - 1662)",
        "position": "2"
    },
    {
        "subcategory": "Pre-1776 States Coinage (1652 - 1774)",
        "position": "3"
    },
    {
        "subcategory": "Pre-1776 Private and Regional Issues (1616 - 1766)",
        "position": "4"
    },
    {
        "subcategory": "French Colonies (1670 - 1767)",
        "position": "5"
    },
    {
        "subcategory": "Post-1776 States Coinage (1776 - 1788)",
        "position": "6"
    },
    {
        "subcategory": "Post-1776 Private and Regional Issues (1778 - 1820)",
        "position": "7"
    },
    {
        "subcategory": "Proposed National Issues (1776 - 1787)",
        "position": "8"
    },
    {
        "subcategory": "Washington Pieces (1783 - 1800)",
        "position": "9"
    },
    {
        "subcategory": "Libertas Americana Medals (1781)",
        "position": "10"
    },
    {
        "subcategory": "Fugio Cents (1787)",
        "position": "11"
    },
    {
        "subcategory": "Colonial Restrikes and Fantasies",
        "position": "12"
    },
    {
        "category": "Territorial",
        "position": "12"
    },
    {
        "subcategory": "Templeton Reid (Georgia) (1830 - 1849)",
        "position": "1"
    },
    {
        "subcategory": "Bechtler (N. Carolina/Georgia) (1831 - 1850)",
        "position": "2"
    },
    {
        "subcategory": "California Gold (1849 - 1855)",
        "position": "3"
    },
    {
        "subcategory": "California Fractional Gold (1852 - 1882)",
        "position": "4"
    },
    {
        "subcategory": "Oregon Gold (1849)",
        "position": "5"
    },
    {
        "subcategory": "Mormon Gold (Utah) (1849 - 1860)",
        "position": "6"
    },
    {
        "subcategory": "Colorado Gold (1860 - 1861)",
        "position": "7"
    },
    {
        "subcategory": "Hawaii (1847 - 1891)",
        "position": "8"
    },
    {
        "subcategory": "U.S. Philippines (1903 - 1945)",
        "position": "9"
    },
    {
        "subcategory": "Alaska Rural Rehabilitation Corp. (1935)",
        "position": "10"
    },
    {
        "subcategory": "Confederate States of America (1861 - 1863)",
        "position": "11"
    },
    {
        "subcategory": "Lesher (Colorado) Dollars (1900 - 1901)",
        "position": "12"
    },
    {
        "category": "Patterns",
        "position": "13"
    },
    {
        "subcategory": "Patterns (1792 - 1859)",
        "position": "1"
    },
    {
        "subcategory": "Patterns (1860 - 1865)",
        "position": "2"
    },
    {
        "subcategory": "Patterns (1866 - 1869)",
        "position": "3"
    },
    {
        "subcategory": "Patterns (1870)",
        "position": "4"
    },
    {
        "subcategory": "Patterns (1871 - 1873)",
        "position": "5"
    },
    {
        "subcategory": "Patterns (1874 - 1879)",
        "position": "6"
    },
    {
        "subcategory": "Patterns (1880 - 1942)",
        "position": "7"
    },
    {
        "subcategory": "Patterns (1943 to Date)",
        "position": "8"
    },
    {
        "subcategory": "Die Trials, Hub Trials, and Splashers (1792 - 1982)",
        "position": "9"
    },
    {
        "subcategory": "Privately-issued \"Patterns\" (1792 - 1938)",
        "position": "10"
    },
    {
        "category": "Miscellaneous",
        "position": "14"
    },
    {
        "subcategory": "U.S. Mint Medals",
        "position": "1"
    },
    {
        "subcategory": "Feuchtwanger Tokens",
        "position": "2"
    },
    {
        "subcategory": "So-Called Dollars",
        "position": "3"
    },
    {
        "subcategory": "U.S. Assay Commission Medals",
        "position": "4"
    },
    {
        "subcategory": "Betts Medals (1845 - 1887)",
        "position": "5"
    },
    {
        "subcategory": "Civil War Tokens (1863 - 1864)",
        "position": "6"
    },
    {
        "subcategory": "Store Cards (1800 to Date)",
        "position": "7"
    },
    {
        "subcategory": "Hard Times Tokens (1828 - 1848)",
        "position": "8"
    },
    {
        "subcategory": "Rulau Tokens (1700 - 1900)",
        "position": "9"
    },
    {
        "subcategory": "Misc. Medallic, Token, & Fantasy Coinage",
        "position": "10"
    },
    {
        "category": "Set",
        "position": "15"
    },
    {
        "subcategory": "Mint Sets",
        "position": "1"
    },
    {
        "subcategory": "Proof Sets",
        "position": "2"
    },
    {
        "subcategory": "Silver Eagle Sets",
        "position": "3"
    },
    {
        "subcategory": "Gold Eagle Sets",
        "position": "4"
    },
    {
        "subcategory": "Platinum Statue of Liberty Sets",
        "position": "5"
    },
    {
        "subcategory": "50 States Quarters Sets",
        "position": "6"
    },
    {
        "subcategory": "Modern Commemorative Sets",
        "position": "7"
    },
    {
        "subcategory": "Miscellaneous Sets",
        "position": "8"
    },
    {
        "subcategory": "Rolls",
        "position": "9"
    },
    {
        "category": "Other",
        "position": "16"
    },
    {
        "category": "world coins",
        "position": "17"
    }
]